Data Wrangling with {dplyr}
…
# A review of pipes

```r
penguins %>% 
  filter(species == "Gentoo") %>% 
  select(bill_length_mm, bill_depth_mm) %>% 
  arrange(desc(bill_length_mm))
```

```
## # A tibble: 124 x 2
##    bill_length_mm bill_depth_mm
##             <dbl>         <dbl>
##  1           59.6          17  
##  2           55.9          17  
##  3           55.1          16  
##  4           54.3          15.7
##  5           53.4          15.8
##  6           52.5          15.6
##  7           52.2          17.1
##  8           52.1          17  
##  9           51.5          16.3
## 10           51.3          14.2
## # … with 114 more rows
```
…
