Data Reshaping with {tidyr}
…
]

.panel[.panel-name[Q2]

```r
# Q2. 

ps_data_wide <- ps_data %>% 
  pivot_wider(names_from = item, values_from = correct)

ps_data_wide
```

```
## # A tibble: 150 x 7
##    subid   age condition faces houses pasta  beds
##    <chr> <dbl> <chr>     <int>  <int> <int> <int>
##  1 M22    2    Label         1      1     0     0
##  2 T22    2.13 Label         0      1     1     0
##  3 T17    2.32 Label         0      0     0     0
##  4 M3     2.38 Label         0      1     1     1
##  5 T19    2.47 Label         0      0     1     1
##  6 T20    2.5  Label         1      1     0     1
##  7 T21    2.58 Label         1      1     1     0
##  8 M26    2.59 Label         1      1     0     1
##  9 T18    2.61 Label         1      0     1     0
## 10 T12    2.72 Label         0      1     0     0
## # … with 140 more rows
```
…
.panel[.panel-name[Q3]

```r
# Q3. 

ps_data_wide %>% 
  pivot_longer(c(faces, houses, pasta, beds), 
               names_to = "item", 
               values_to = "correct") %>% 
  select(subid, item, correct, everything()) # reorder columns
```

```
## # A tibble: 600 x 5
##    subid item   correct   age condition
##    <chr> <chr>    <int> <dbl> <chr>    
##  1 M22   faces        1  2    Label    
##  2 M22   houses       1  2    Label    
##  3 M22   pasta        0  2    Label    
##  4 M22   beds         0  2    Label    
##  5 T22   faces        0  2.13 Label    
##  6 T22   houses       1  2.13 Label    
##  7 T22   pasta        1  2.13 Label    
##  8 T22   beds         0  2.13 Label    
##  9 T17   faces        0  2.32 Label    
## 10 T17   houses       0  2.32 Label    
## # … with 590 more rows
```
…
